{
    "KPlugin": {
        "Authors": [
            {
                "Email": "sebas@kde.org",
                "Name": "Sebastian Kügler",
                "Name[az]": "Sebastian Kügler",
                "Name[bg]": "Sebastian Kügler",
                "Name[ca@valencia]": "Sebastian Kügler",
                "Name[ca]": "Sebastian Kügler",
                "Name[cs]": "Sebastian Kügler",
                "Name[en_GB]": "Sebastian Kügler",
                "Name[es]": "Sebastian Kügler",
                "Name[eu]": "Sebastian Kügler",
                "Name[fi]": "Sebastian Kügler",
                "Name[fr]": "Sebastian Kügler",
                "Name[ia]": "Sebastian Kügler",
                "Name[id]": "Sebastian Kügler",
                "Name[it]": "Sebastian Kügler",
                "Name[ka]": "Sebastian Kügler",
                "Name[ko]": "Sebastian Kügler",
                "Name[nl]": "Sebastian Kügler",
                "Name[nn]": "Sebastian Kügler",
                "Name[pl]": "Sebastian Kügler",
                "Name[pt]": "Sebastian Kügler",
                "Name[pt_BR]": "Sebastian Kügler",
                "Name[ru]": "Sebastian Kügler",
                "Name[sl]": "Sebastian Kügler",
                "Name[sv]": "Sebastian Kügler",
                "Name[tr]": "Sebastian Kügler",
                "Name[uk]": "Sebastian Kügler",
                "Name[vi]": "Sebastian Kügler",
                "Name[x-test]": "xxSebastian Küglerxx",
                "Name[zh_CN]": "Sebastian Kügler"
            }
        ],
        "Category": "Development Tools",
        "Icon": "preferences-desktop-appearance",
        "Id": "org.kde.example.testtheme",
        "License": "GPLv2+",
        "Name": "Theme Test",
        "Name[az]": "Mövzu testi",
        "Name[bg]": "Трст на тема",
        "Name[ca@valencia]": "Prova de tema",
        "Name[ca]": "Prova de tema",
        "Name[cs]": "Test motivu",
        "Name[en_GB]": "Theme Test",
        "Name[es]": "Prueba de tema",
        "Name[eu]": "Gai-proba",
        "Name[fi]": "Teematesti",
        "Name[fr]": "Test de thème",
        "Name[ia]": "Essayo de Thema",
        "Name[id]": "Uji Tema",
        "Name[it]": "Prova del tema",
        "Name[ka]": "თემის ტესტი",
        "Name[ko]": "테마 테스트",
        "Name[nl]": "Test van thema",
        "Name[nn]": "Tematest",
        "Name[pl]": "Próba wyglądu",
        "Name[pt]": "Teste do Tema",
        "Name[pt_BR]": "Teste de tema",
        "Name[ru]": "Проверка оформления",
        "Name[sl]": "Preizkus teme",
        "Name[sv]": "Tematest",
        "Name[tr]": "Tema Sınaması",
        "Name[uk]": "Тестування теми",
        "Name[vi]": "Kiểm thử chủ đề",
        "Name[x-test]": "xxTheme Testxx",
        "Name[zh_CN]": "主题测试",
        "ServiceTypes": [
            "Plasma/Applet"
        ],
        "Version": "",
        "Website": ""
    },
    "Keywords": "",
    "X-KDE-ParentApp": "",
    "X-Plasma-API": "declarativeappletscript",
    "X-Plasma-MainScript": "ui/testtheme.qml"
}
